D:\Devops\spring-app\src\main\java\ro\tuc\ds2020\dtos\LoginRequest.java
D:\Devops\spring-app\src\main\java\ro\tuc\ds2020\repositories\DeviceRepository.java
D:\Devops\spring-app\src\main\java\ro\tuc\ds2020\dtos\validators\AgeValidator.java
D:\Devops\spring-app\src\main\java\ro\tuc\ds2020\entities\Sensor.java
D:\Devops\spring-app\src\main\java\ro\tuc\ds2020\dtos\builders\DeviceBuilder.java
D:\Devops\spring-app\src\main\java\ro\tuc\ds2020\dtos\validators\annotation\AgeLimit.java
D:\Devops\spring-app\src\main\java\ro\tuc\ds2020\controllers\DeviceController.java
D:\Devops\spring-app\src\main\java\ro\tuc\ds2020\dtos\MessageResponse.java
D:\Devops\spring-app\src\main\java\ro\tuc\ds2020\controllers\handlers\exceptions\model\CustomException.java
D:\Devops\spring-app\src\main\java\ro\tuc\ds2020\controllers\handlers\RestExceptionHandler.java
D:\Devops\spring-app\src\main\java\ro\tuc\ds2020\entities\Device.java
D:\Devops\spring-app\src\main\java\ro\tuc\ds2020\controllers\PersonController.java
D:\Devops\spring-app\src\main\java\ro\tuc\ds2020\entities\Person.java
D:\Devops\spring-app\src\main\java\ro\tuc\ds2020\config\HttpTraceRepositoryConfig.java
D:\Devops\spring-app\src\main\java\ro\tuc\ds2020\services\PersonService.java
D:\Devops\spring-app\src\main\java\ro\tuc\ds2020\dtos\PersonDTO.java
D:\Devops\spring-app\src\main\java\ro\tuc\ds2020\repositories\SensorRepository.java
D:\Devops\spring-app\src\main\java\ro\tuc\ds2020\dtos\DeviceDetailsDTO.java
D:\Devops\spring-app\src\main\java\ro\tuc\ds2020\controllers\handlers\exceptions\model\DuplicateResourceException.java
D:\Devops\spring-app\src\main\java\ro\tuc\ds2020\controllers\handlers\exceptions\model\EntityValidationException.java
D:\Devops\spring-app\src\main\java\ro\tuc\ds2020\Ds2020Application.java
D:\Devops\spring-app\src\main\java\ro\tuc\ds2020\entities\Admin.java
D:\Devops\spring-app\src\main\java\ro\tuc\ds2020\repositories\AdminRepository.java
D:\Devops\spring-app\src\main\java\ro\tuc\ds2020\services\AdminService.java
D:\Devops\spring-app\src\main\java\ro\tuc\ds2020\controllers\handlers\exceptions\model\ParameterValidationException.java
D:\Devops\spring-app\src\main\java\ro\tuc\ds2020\controllers\handlers\exceptions\model\ResourceNotFoundException.java
D:\Devops\spring-app\src\main\java\ro\tuc\ds2020\repositories\PersonRepository.java
D:\Devops\spring-app\src\main\java\ro\tuc\ds2020\dtos\builders\PersonBuilder.java
D:\Devops\spring-app\src\main\java\ro\tuc\ds2020\dtos\PersonDetailsDTO.java
D:\Devops\spring-app\src\main\java\ro\tuc\ds2020\controllers\AdminController.java
D:\Devops\spring-app\src\main\java\ro\tuc\ds2020\services\DeviceService.java
D:\Devops\spring-app\src\main\java\ro\tuc\ds2020\controllers\IndexController.java
D:\Devops\spring-app\src\main\java\ro\tuc\ds2020\controllers\handlers\exceptions\model\ExceptionHandlerResponseDTO.java
